{
	"aggregate": "mimic",
	"explain": false,
	"pipeline": 
	[

		{
			"$match": 
			{
				"GENDER": "M"
				
			}
		},
		{
			"$match": 
			{
				"$and": 
				[
					{
						"ADMISSIONS.procedureevents_mv.ordercategoryname": 
						{
							"$eq": "Ventilation"
						}
					},
					
					{
						"ADMISSIONS.microbiologyevents.ab_name": 
						{
							"$eq": "CEFEPIME"
						}
					}
				]
			}
		},

		{
			"$unwind": "$ADMISSIONS"
		},

		{
			"$unwind": "$ADMISSIONS.labevents"
		}
		,
		{
			"$unwind": "$ADMISSIONS.procedureevents_mv"
		},
		
		{
			"$unwind": "$ADMISSIONS.microbiologyevents"
		},

		{
			"$match": 
			{
				"ADMISSIONS.procedureevents_mv.ordercategoryname": "Ventilation"
				
			}
		},
		
		{
			"$match": 
			{
				"ADMISSIONS.microbiologyevents.ab_name": "CEFEPIME"
				
			}
		},
		
		{
			"$lookup": 
			{
				"from": "d_labitems",
				"let": 
				{
					"item": "$ADMISSIONS.labevents.itemid"
				},

				"pipeline": 
				[
					{
						"$match": 
						{
							"$expr": 
							{
								"$and": 
								[
									{
										"$eq": 
										[
											"$ITEMID",
											"$$item"
										]
									},

									{
										"$eq": 
										[
											"$FLUID",
											"Cerebrospinal Fluid (CSF)"
										]
									},
									
									{
										"$eq": 
										[
											"$CATEGORY",
											"Hematology"
										]
									}
								]
							}
						}
					},

					{
						"$project": 
						{
							"ITEMID": 0,
							" _id": 0
						}
					}
				],

				"as": "t2"
			}
		},

		{
			"$match": 
			{
				"t2": 
				{
					"$ne": 
					[
						
					]
				}
			}
		},
		{
			"$project": {
				"SUBJECT_ID":1
			 }
		}
		,
		{
			"$count": "c"
		}
	],

	"allowDiskUse": true,
	"maxTimeMS": 3600000,
	"cursor": 
	{
		
	}
}