{
	"aggregate": "mimic",
	"explain": false,
	"pipeline": 
	[
		{
			"$match": 
			{
				"$text": 
				{
					"$search": "\"specis\""
				}
			}
		},

		{
			"$match": 
			{
				"GENDER": "M"
				
			}
		},
		{
			"$match": 
			{
				"ADMISSIONS.procedureevents_mv.ordercategoryname": "Peripheral Lines"	
				
			}
		},

		{
			"$unwind": "$ADMISSIONS"
		},

		{
			"$unwind": "$ADMISSIONS.noteevents_0"
		},
		{
			"$match": 
			{
				"ADMISSIONS.noteevents_0.text": { "$regex": "specis"} 
				
			}
		},

		{
			"$unwind": "$ADMISSIONS.labevents"
		},

		{
			"$unwind": "$ADMISSIONS.procedureevents_mv"
		}
		,
		{
			"$match": 
			{
				"ADMISSIONS.procedureevents_mv.ordercategoryname": "Peripheral Lines"
				
			}
		}
		,
		{
			"$lookup": 
			{
				"from": "d_labitems",
				"let": 
				{
					"item": "$ADMISSIONS.labevents.itemid"
				},

				"pipeline": 
				[
					{
						"$match": 
						{
							"$expr": 
							{
								"$and": 
								[
									{
										"$eq": 
										[
											"$ITEMID",
											"$$item"
										]
									},

									{
										"$eq": 
										[
											"$FLUID",
											"Blood"
										]
									},
									
									{
										"$eq": 
										[
											"$LABEL",
											"Gentamicin"
										]
									}
								]
							}
						}
					},

					{
						"$project": 
						{
							"ITEMID": 0,
							" _id": 0
						}
					}
				],

				"as": "t2"
			}
		},

		{
			"$match": 
			{
				"t2": 
				{
					"$ne": 
					[
						
					]
				}
			}
		},
		{
			"$project": {
				"SUBJECT_ID":1
			 }
		}
		,
		{
			"$count": "c"
		}
	],

	"allowDiskUse": true,
	"maxTimeMS": 3600000,
	"cursor": 
	{
		
	}
}