{
	"aggregate": "mimic",
	"explain": false,
	"pipeline": 
	[
		{
			"$match": 
			{
				"$text": 
				{
					"$search": "\"embolism\""
				}
			}
		},
		{
			"$match": 
			{
				"GENDER": "M"
				
			}
		},

		{
			"$match": 
			{
				"$and": 
				[
					{
						"ADMISSIONS.icustays.prescriptions.drug_type": 
						{
							"$eq": "MAIN"
						}
					},

					{
						"ADMISSIONS.icustays.prescriptions.drug": 
						{
							"$eq": "Potassium Chloride"
						}
					},
					{
						"ADMISSIONS.labevents.flag": 
						{
							"$eq": "abnormal"
						}
					}
				]
			}
		},

		{
			"$unwind": "$ADMISSIONS"
		},

		{
			"$unwind": "$ADMISSIONS.noteevents_0"
		},
		{
			"$match": 
			{
				"ADMISSIONS.noteevents_0.text": { "$regex": "embolism"} 
				
			}
		},

		{
			"$unwind": "$ADMISSIONS.labevents"
		},
			
		{
			"$match": 
			{
				"ADMISSIONS.labevents.flag": "abnormal"
				
			}
		},
		
		{
			"$unwind": "$ADMISSIONS.icustays"
		},

		{
			"$unwind": "$ADMISSIONS.icustays.prescriptions"
		},
		{
			"$match": 
			{
				"ADMISSIONS.icustays.prescriptions.drug_type": "MAIN"
				
			}
		},
		{
			"$match": 
			{
				"ADMISSIONS.icustays.prescriptions.drug": "Potassium Chloride"
				
			}
		},

		{
			"$lookup": 
			{
				"from": "d_labitems",
				"let": 
				{
					"item": "$ADMISSIONS.labevents.itemid"
				},

				"pipeline": 
				[
					{
						"$match": 
						{
							"$expr": 
							{
								"$and": 
								[
									{
										"$eq": 
										[
											"$ITEMID",
											"$$item"
										]
									},

									{
										"$eq": 
										[
											"$FLUID",
											"Ascites"
										]
									}
								]
							}
						}
					},

					{
						"$project": 
						{
							"ITEMID": 0,
							" _id": 0
						}
					}
				],

				"as": "t2"
			}
		},

		{
			"$match": 
			{
				"t2": 
				{
					"$ne": 
					[
						
					]
				}
			}
		},
		{
			"$project": {
				"SUBJECT_ID":1
			 }
		}
		,
		{
			"$count": "c"
		}
	],

	"allowDiskUse": true,
	"maxTimeMS": 3600000,
	"cursor": 
	{
		
	}
}