{
	"aggregate": "mimic",
	"explain": false,
	"pipeline": 
	[
		{
			"$match": 
			{
				"$text": 
				{
					"$search": "intracranial hemorrhag"
				}
			}
		},

		{
			"$match": 
			{
				"$and": 
				[
					{
						"ADMISSIONS.procedureevents_mv.ordercategoryname": 
						{
							"$eq": "Ventilation"
						}
					},

					{
						"ADMISSIONS.microbiologyevents.ab_name": 
						{
							"$eq": "CEFEPIME"
						}
					},

					{
						"ADMISSIONS.labevents.flag": 
						{
							"$eq": "abnormal"
						}
					}
				]
			}
		},

		{
			"$unwind": "$ADMISSIONS"
		},

		{
			"$unwind": "$ADMISSIONS.labevents"
		},

		{
			"$lookup": 
			{
				"from": "d_labitems",
				"let": 
				{
					"item": "$ADMISSIONS.labevents.itemid"
				},

				"pipeline": 
				[
					{
						"$match": 
						{
							"$expr": 
							{
								"$and": 
								[
									{
										"$eq": 
										[
											"$ITEMID",
											"$$item"
										]
									},

									{
										"$eq": 
										[
											"$FLUID",
											"Cerebrospinal Fluid (CSF)"
										]
									},

									{
										"$eq": 
										[
											"$CATEGORY",
											"Hematology"
										]
									}
								]
							}
						}
					},

					{
						"$project": 
						{
							"ITEMID": 0,
							" _id": 0
						}
					}
				],

				"as": "t2"
			}
		},

		{
			"$match": 
			{
				"t2": 
				{
					"$ne": 
					[
						
					]
				}
			}
		},

		{
			"$unwind": "$ADMISSIONS.procedureevents_mv"
		},

		{
			"$unwind": "$ADMISSIONS.microbiologyevents"
		},

		{
			"$match": 
			{
				"$expr": 
				{
					"$and": 
					[
						
						{
							"$eq": 
							[
								"$ADMISSIONS.procedureevents_mv.ordercategoryname",
								"Ventilation"
							]
						},
						
						{
							"$eq": 
							[
								"$ADMISSIONS.microbiologyevents.ab_name",
								"CEFEPIME"
							]
						},
						{
							"$eq": 
							[
								"$ADMISSIONS.labevents.flag",
								"abnormal"
							]
						}
					]
				}
			}
		},
		{"$limit":9000000},
		{"$count":"c"}
	],

	"allowDiskUse": false,
	"maxTimeMS": 3600000,
	"cursor": 
	{
		
	}
}