{
	"aggregate": "mimic",
	"explain": false,
	"pipeline": 
	[
		{
			"$match": 
			{
				"$text": 
				{
					"$search": "coronary artery disease"
				}
			}
		},
		
		{
			"$match": 
			{
				"$and": 
				[
					{
						"ADMISSIONS.procedureevents_mv.ordercategoryname": 
						{
							"$eq": "Invasive Lines"
						}
					},

					{
						"ADMISSIONS.icustays.prescriptions.drug": 
						{
							"$eq": "Magnesium Sulfate"
						}
					}
				]
			}
		},
		{
			"$unwind": "$ADMISSIONS"
		},

		{
			"$unwind": "$ADMISSIONS.labevents"
		},
		{
			"$lookup": 
			{
				"from": "d_labitems",
				"let": 
				{
					"item": "$ADMISSIONS.labevents.itemid"
				},

				"pipeline": 
				[
					{
						"$match": 
						{
							"$expr": 
							{
								"$and": 
								[
									{
										"$eq": 
										[
											"$ITEMID",
											"$$item"
										]
									},

									{
										"$eq": 
										[
											"$FLUID",
											"Blood"
										]
									},

									{
										"$eq": 
										[
											"$CATEGORY",
											"Blood Gas"
										]
									}
								]
							}
						}
					},

					{
						"$project": 
						{
							"ITEMID": 0,
							" _id": 0
						}
					}
				],

				"as": "t2"
			}
		},

		{
			"$match": 
			{
				"t2": 
				{
					"$ne": 
					[
						
					]
				}
			}
		}
		,
		{
			"$unwind": "$ADMISSIONS.icustays"
		},

		{
			"$unwind": "$ADMISSIONS.icustays.prescriptions"
		},

		{
			"$unwind": "$ADMISSIONS.procedureevents_mv"
		},
		{
			"$match": 
			{
				"$expr": 
				{
					"$and": 
					[
						{
							"$eq": 
							[
								"$ADMISSIONS.procedureevents_mv.ordercategoryname",
								"Invasive Lines"
							]
						},
						{
							"$eq": 
							[
								"$ADMISSIONS.icustays.prescriptions.drug",
								"Magnesium Sulfate"
							]
						}
					]
				}
			}
		},
		{"$limit":9000000},
		{"$count":"c"}
		
	],

	"allowDiskUse": false,
	"maxTimeMS": 3600000,
	"cursor": 
	{
		
	}
}