{
	"aggregate": "mimic",
	"explain": false,
	"pipeline": 
	[

		{
			"$match": 
			{
				"$and": 
				[
					{
						"ADMISSIONS.microbiologyevents.interpretation": 
						{
							"$eq": "S"
						}
					},

					{
						"ADMISSIONS.icustays.prescriptions.drug_type": 
						{
							"$eq": "MAIN"
						}
					},
					{
						"ADMISSIONS.services.curr_service": 
						{
							"$eq": "TRAUM"
						}
					}
					
				]
			}
		},

		{
			"$unwind": "$ADMISSIONS"
		},

		{
			"$unwind": "$ADMISSIONS.labevents"
		},

		{
			"$lookup": 
			{
				"from": "d_labitems",
				"let": 
				{
					"item": "$ADMISSIONS.labevents.itemid"
				},

				"pipeline": 
				[
					{
						"$match": 
						{
							"$expr": 
							{
								"$and": 
								[
									{
										"$eq": 
										[
											"$ITEMID",
											"$$item"
										]
									},

									{
										"$eq": 
										[
											"$FLUID",
											"Blood"
										]
									}
								]
							}
						}
					},

					{
						"$project": 
						{
							"ITEMID": 0,
							" _id": 0
						}
					}
				],

				"as": "t2"
			}
		},

		{
			"$match": 
			{
				"t2": 
				{
					"$ne": 
					[
						
					]
				}
			}
		},

		{
			"$unwind": "$ADMISSIONS.microbiologyevents"
		},

		{
			"$unwind": "$ADMISSIONS.icustays"
		},

		{
			"$unwind": "$ADMISSIONS.icustays.prescriptions"
		},
{
			"$unwind": "$ADMISSIONS.services"
		},
		{
			"$match": 
			{
				"$expr": 
				{
					"$and": 
					[
						{
							"$eq": 
							[
								"$ADMISSIONS.microbiologyevents.interpretation",
								"S"
							]
						},

						{
							"$eq": 
							[
								"$ADMISSIONS.icustays.prescriptions.drug_type",
								"MAIN"
							]
						},
						{
							"$eq": 
							[
								"$ADMISSIONS.services.curr_service",
								"TRAUM"
							]
						}
					]
				}
			}
		},

		{
			"$limit": 1
		}
	],

	"allowDiskUse": false,
	"maxTimeMS": 3600000,
	"cursor": 
	{
		
	}
}